{ "_id" : 
	{ "$oid" : "5a90f14f2736f9a37d8fb36a" }, 
	"id_user" : 1, 
	"date" : "Sat Feb 24 05:59:59 CET 2018", 
	"content" : "Test sur seveur", 
	"comments" : 
	[ 
		{ 
			"id_user" : 2, 
			"date" : "Sat Feb 24 06:11:44 CET 2018", 
			"comment" : "ça marche!" 
		} 
				
	] 
}
